%YAML 1.1
%TAG !u! tag:unity3d.com,2011:
--- !u!74 &7400000
AnimationClip:
  m_ObjectHideFlags: 0
  m_PrefabParentObject: {fileID: 0}
  m_PrefabInternal: {fileID: 0}
  m_Name: Walking
  serializedVersion: 6
  m_Legacy: 0
  m_Compressed: 0
  m_UseHighQualityCurve: 1
  m_RotationCurves: []
  m_CompressedRotationCurves: []
  m_EulerCurves:
  - curve:
      serializedVersion: 2
      m_Curve:
      - time: 0
        value: {x: 0, y: -180, z: 157.6535}
        inSlope: {x: 0, y: 0, z: 213.8023}
        outSlope: {x: 0, y: 0, z: 213.8023}
        tangentMode: 0
      - time: 0.16666667
        value: {x: 0, y: -179.99998, z: 201.20525}
        inSlope: {x: 0, y: 0, z: 213.8023}
        outSlope: {x: 0, y: 0, z: 213.8023}
        tangentMode: 0
      - time: 0.25
        value: {x: 0, y: -179.99998, z: 211.10408}
        inSlope: {x: 0, y: -0.000018310548, z: 0.015815735}
        outSlope: {x: 0, y: -0.000018310548, z: 0.015815735}
        tangentMode: 0
      - time: 0.75
        value: {x: 0, y: -179.99998, z: 104.21874}
        inSlope: {x: 0, y: -0.000020345053, z: -0.015815735}
        outSlope: {x: 0, y: -0.000020345053, z: -0.015815735}
        tangentMode: 0
      - time: 1
        value: {x: 0, y: -180, z: 157.6535}
        inSlope: {x: 0, y: 0, z: 213.73904}
        outSlope: {x: 0, y: 0, z: 213.73904}
        tangentMode: 0
      m_PreInfinity: 2
      m_PostInfinity: 2
      m_RotationOrder: 4
    path: Root2/r_hip/r_knee
  - curve:
      serializedVersion: 2
      m_Curve:
      - time: 0
        value: {x: 0, y: -180, z: 147.91556}
        inSlope: {x: 0, y: 0, z: -308.17252}
        outSlope: {x: 0, y: 0, z: -308.17252}
        tangentMode: 0
      - time: 0.25
        value: {x: 0, y: -180, z: 70.87244}
        inSlope: {x: 0, y: 0, z: -0.32440186}
        outSlope: {x: 0, y: 0, z: -0.32440186}
        tangentMode: 0
      - time: 0.75
        value: {x: 0, y: -180, z: 224.6343}
        inSlope: {x: 0, y: 0, z: 0.3243866}
        outSlope: {x: 0, y: 0, z: 0.3243866}
        tangentMode: 0
      - time: 1
        value: {x: 0, y: -180, z: 147.91556}
        inSlope: {x: 0, y: 0, z: -306.87494}
        outSlope: {x: 0, y: 0, z: -306.87494}
        tangentMode: 0
      m_PreInfinity: 2
      m_PostInfinity: 2
      m_RotationOrder: 4
    path: Root2/l_hip/l_knee
  m_PositionCurves: []
  m_ScaleCurves: []
  m_FloatCurves: []
  m_PPtrCurves: []
  m_SampleRate: 60
  m_WrapMode: 0
  m_Bounds:
    m_Center: {x: 0, y: 0, z: 0}
    m_Extent: {x: 0, y: 0, z: 0}
  m_ClipBindingConstant:
    genericBindings:
    - path: 1431065116
      attribute: 4
      script: {fileID: 0}
      classID: 4
      customType: 14
      isPPtrCurve: 0
    - path: 2310606613
      attribute: 4
      script: {fileID: 0}
      classID: 4
      customType: 14
      isPPtrCurve: 0
    pptrCurveMapping: []
  m_AnimationClipSettings:
    serializedVersion: 2
    m_AdditiveReferencePoseClip: {fileID: 0}
    m_AdditiveReferencePoseTime: 0
    m_StartTime: 0
    m_StopTime: 1
    m_OrientationOffsetY: 0
    m_Level: 0
    m_CycleOffset: 0
    m_HasAdditiveReferencePose: 0
    m_LoopTime: 1
    m_LoopBlend: 0
    m_LoopBlendOrientation: 0
    m_LoopBlendPositionY: 0
    m_LoopBlendPositionXZ: 0
    m_KeepOriginalOrientation: 0
    m_KeepOriginalPositionY: 1
    m_KeepOriginalPositionXZ: 0
    m_HeightFromFeet: 0
    m_Mirror: 0
  m_EditorCurves:
  - curve:
      serializedVersion: 2
      m_Curve:
      - time: 0
        value: 0
        inSlope: 0
        outSlope: 0
        tangentMode: 10
      - time: 0.16666667
        value: 0
        inSlope: 0
        outSlope: 0
        tangentMode: 10
      - time: 1
        value: 0
        inSlope: 0
        outSlope: 0
        tangentMode: 10
      m_PreInfinity: 2
      m_PostInfinity: 2
      m_RotationOrder: 4
    attribute: localEulerAnglesRaw.x
    path: Root2/r_hip/r_knee
    classID: 4
    script: {fileID: 0}
  - curve:
      serializedVersion: 2
      m_Curve:
      - time: 0
        value: -180
        inSlope: 0
        outSlope: 0
        tangentMode: 10
      - time: 1
        value: -180
        inSlope: 0
        outSlope: 0
        tangentMode: 10
      m_PreInfinity: 2
      m_PostInfinity: 2
      m_RotationOrder: 4
    attribute: localEulerAnglesRaw.y
    path: Root2/r_hip/r_knee
    classID: 4
    script: {fileID: 0}
  - curve:
      serializedVersion: 2
      m_Curve:
      - time: 0
        value: 157.6535
        inSlope: 213.8023
        outSlope: 213.8023
        tangentMode: 10
      - time: 0.25
        value: 211.10408
        inSlope: 0.015815735
        outSlope: 0.015815735
        tangentMode: 10
      - time: 0.75
        value: 104.21874
        inSlope: -0.015815735
        outSlope: -0.015815735
        tangentMode: 10
      - time: 1
        value: 157.6535
        inSlope: 213.73904
        outSlope: 213.73904
        tangentMode: 10
      m_PreInfinity: 2
      m_PostInfinity: 2
      m_RotationOrder: 4
    attribute: localEulerAnglesRaw.z
    path: Root2/r_hip/r_knee
    classID: 4
    script: {fileID: 0}
  - curve:
      serializedVersion: 2
      m_Curve:
      - time: 0
        value: 0
        inSlope: 0
        outSlope: 0
        tangentMode: 10
      - time: 1
        value: 0
        inSlope: 0
        outSlope: 0
        tangentMode: 10
      m_PreInfinity: 2
      m_PostInfinity: 2
      m_RotationOrder: 4
    attribute: localEulerAnglesRaw.x
    path: Root2/l_hip/l_knee
    classID: 4
    script: {fileID: 0}
  - curve:
      serializedVersion: 2
      m_Curve:
      - time: 0
        value: -180
        inSlope: 0
        outSlope: 0
        tangentMode: 10
      - time: 1
        value: -180
        inSlope: 0
        outSlope: 0
        tangentMode: 10
      m_PreInfinity: 2
      m_PostInfinity: 2
      m_RotationOrder: 4
    attribute: localEulerAnglesRaw.y
    path: Root2/l_hip/l_knee
    classID: 4
    script: {fileID: 0}
  - curve:
      serializedVersion: 2
      m_Curve:
      - time: 0.000000014901161
        value: 147.91556
        inSlope: -308.17252
        outSlope: -308.17252
        tangentMode: 10
      - time: 0.25
        value: 70.87244
        inSlope: -0.32440186
        outSlope: -0.32440186
        tangentMode: 10
      - time: 0.75
        value: 224.6343
        inSlope: 0.3243866
        outSlope: 0.3243866
        tangentMode: 10
      - time: 1
        value: 147.91556
        inSlope: -306.87494
        outSlope: -306.87494
        tangentMode: 10
      m_PreInfinity: 2
      m_PostInfinity: 2
      m_RotationOrder: 4
    attribute: localEulerAnglesRaw.z
    path: Root2/l_hip/l_knee
    classID: 4
    script: {fileID: 0}
  m_EulerEditorCurves:
  - curve:
      serializedVersion: 2
      m_Curve: []
      m_PreInfinity: 2
      m_PostInfinity: 2
      m_RotationOrder: 4
    attribute: m_LocalEulerAngles.x
    path: Root2/r_hip/r_knee
    classID: 4
    script: {fileID: 0}
  - curve:
      serializedVersion: 2
      m_Curve: []
      m_PreInfinity: 2
      m_PostInfinity: 2
      m_RotationOrder: 4
    attribute: m_LocalEulerAngles.y
    path: Root2/r_hip/r_knee
    classID: 4
    script: {fileID: 0}
  - curve:
      serializedVersion: 2
      m_Curve: []
      m_PreInfinity: 2
      m_PostInfinity: 2
      m_RotationOrder: 4
    attribute: m_LocalEulerAngles.z
    path: Root2/r_hip/r_knee
    classID: 4
    script: {fileID: 0}
  - curve:
      serializedVersion: 2
      m_Curve: []
      m_PreInfinity: 2
      m_PostInfinity: 2
      m_RotationOrder: 4
    attribute: m_LocalEulerAngles.x
    path: Root2/l_hip/l_knee
    classID: 4
    script: {fileID: 0}
  - curve:
      serializedVersion: 2
      m_Curve: []
      m_PreInfinity: 2
      m_PostInfinity: 2
      m_RotationOrder: 4
    attribute: m_LocalEulerAngles.y
    path: Root2/l_hip/l_knee
    classID: 4
    script: {fileID: 0}
  - curve:
      serializedVersion: 2
      m_Curve: []
      m_PreInfinity: 2
      m_PostInfinity: 2
      m_RotationOrder: 4
    attribute: m_LocalEulerAngles.z
    path: Root2/l_hip/l_knee
    classID: 4
    script: {fileID: 0}
  m_HasGenericRootTransform: 0
  m_HasMotionFloatCurves: 0
  m_GenerateMotionCurves: 0
  m_Events: []
